<svg xmlns="http://www.w3.org/2000/svg" width="20" height="20" viewBox="0 0 20 20">
    <g fill="none" fill-rule="evenodd">
        <path d="M0 0h20v20H0z"/>
        <path stroke="#000" d="M7.59 3.083l1.807 3.95.185.38.416.045 4.42.448a.1.1 0 0 1 .056.175l-3.296 2.875-.324.292.093.403.924 4.201a.1.1 0 0 1-.147.11L7.87 13.825l-.37-.224-.37.224-3.854 2.135a.1.1 0 0 1-.147-.109l.924-4.2.093-.404-.324-.292L.526 8.081a.1.1 0 0 1 .056-.175l4.42-.448.416-.044.185-.382L7.41 3.083a.1.1 0 0 1 .182 0z"/>
    </g>
</svg>
